{
  "nobilityRoute": {
    "cells": [
      {
        "cellIndex": "0",
        "numberOfBonuses": "0",
        "bonuses": []
      },
      {
        "cellIndex": "1",
        "numberOfBonuses": "2",
        "bonuses": [
          {
            "quantity": "2",
            "type": "COINS",
            "isDirect": "true"
          },
          {
            "quantity": "2",
            "type": "WINSTEPS",
            "isDirect": "true"
          }
        ]
      },
      {
        "cellIndex": "2",
        "numberOfBonuses": "0",
        "bonuses": []
      },
      {
        "cellIndex": "3",
        "numberOfBonuses": "1",
        "bonuses": [
          {
            "quantity": "0",
            "type": "TOWNBONUSES",
            "isDirect": "false"
          }
        ]
      },
      {
        "cellIndex": "4",
        "numberOfBonuses": "0",
        "bonuses": []
      },
      {
        "cellIndex": "5",
        "numberOfBonuses": "1",
        "bonuses": [
          {
            "quantity": "1",
            "type": "SUPPACTION",
            "isDirect": "true"
          }
        ]
      },
      {
        "cellIndex": "6",
        "numberOfBonuses": "0",
        "bonuses": []
      },
      {
        "cellIndex": "7",
        "numberOfBonuses": "2",
        "bonuses": [
          {
            "quantity": "3",
            "type": "WINSTEPS",
            "isDirect": "true"
          },
          {
            "quantity": "1",
            "type": "CARDS",
            "isDirect": "true"
          }
        ]
      },
      {
        "cellIndex": "8",
        "numberOfBonuses": "0",
        "bonuses": []
      },
      {
        "cellIndex": "9",
        "numberOfBonuses": "1",
        "bonuses": [
          {
            "quantity": "0",
            "type": "PERMISSIONCARDBONUSES",
            "isDirect": "false"
          }
        ]
      },
      {
        "cellIndex": "10",
        "numberOfBonuses": "0",
        "bonuses": []
      },
      {
        "cellIndex": "11",
        "numberOfBonuses": "2",
        "bonuses": [
          {
            "quantity": "1",
            "type": "HELPERS",
            "isDirect": "true"
          },
          {
            "quantity": "5",
            "type": "WINSTEPS",
            "isDirect": "true"
          }
        ]
      },
      {
        "cellIndex": "12",
        "numberOfBonuses": "0",
        "bonuses": []
      },
      {
        "cellIndex": "13",
        "numberOfBonuses": "1",
        "bonuses": [
          {
            "quantity": "0",
            "type": "PERMISSIONCARDBONUSES",
            "isDirect": "false"
          }
        ]
      },
      {
        "cellIndex": "14",
        "numberOfBonuses": "0",
        "bonuses": []
      },
      {
        "cellIndex": "15",
        "numberOfBonuses": "2",
        "bonuses": [
          {
            "quantity": "0",
            "type": "TOWNBONUSES",
            "isDirect": "false"
          },
          {
            "quantity": "0",
            "type": "TOWNBONUSES",
            "isDirect": "false"
          }
        ]
      },
      {
        "cellIndex": "16",
        "numberOfBonuses": "0",
        "bonuses": []
      },
      {
        "cellIndex": "17",
        "numberOfBonuses": "1",
        "bonuses": [
          {
            "quantity": "8",
            "type": "WINSTEPS",
            "isDirect": "true"
          }
        ]
      },
      {
        "cellIndex": "18",
        "numberOfBonuses": "1",
        "bonuses": [
          {
            "quantity": "2",
            "type": "WINSTEPS",
            "isDirect": "true"
          }
        ]
      },
      {
        "cellIndex": "19",
        "numberOfBonuses": "1",
        "bonuses": [
          {
            "quantity": "3",
            "type": "WINSTEPS",
            "isDirect": "true"
          }
        ]
      }
    ]
  },
  "map": {
    "mapFields": [
      {
        "zone": "SEASIDE",
        "towns": [
          {
            "townName": "Arkon",
            "townColor": "BLUE",
            "numberOfBonuses": "1",
            "townSector": "0",
            "connectionsWithAnchors": [],
            "hasKing": "false",
            "bonuses": [
              {
                "quantity": "1",
                "type": "WINSTEPS",
                "isDirect": "true"
              }
            ],
            "connectionsWithTowns": [
              "Castrum",
              "Burgen"
            ]
          },
          {
            "townName": "Castrum",
            "townColor": "SILVER",
            "numberOfBonuses": "2",
            "townSector": "1",
            "connectionsWithAnchors": [
              "0"
            ],
            "hasKing": "false",
            "bonuses": [
              {
                "quantity": "1",
                "type": "HELPERS",
                "isDirect": "true"
              },
              {
                "quantity": "1",
                "type": "CARDS",
                "isDirect": "true"
              }
            ],
            "connectionsWithTowns": [
              "Arkon"
            ]
          },
          {
            "townName": "Burgen",
            "townColor": "GOLD",
            "numberOfBonuses": "1",
            "townSector": "2",
            "connectionsWithAnchors": [],
            "hasKing": "false",
            "bonuses": [
              {
                "quantity": "1",
                "type": "CARDS",
                "isDirect": "true"
              }
            ],
            "connectionsWithTowns": [
              "Arkon",
              "Dorful",
              "Esti"
            ]
          },
          {
            "townName": "Dorful",
            "townColor": "SILVER",
            "numberOfBonuses": "2",
            "townSector": "3",
            "connectionsWithAnchors": [
              "1"
            ],
            "hasKing": "false",
            "bonuses": [
              {
                "quantity": "1",
                "type": "CARDS",
                "isDirect": "true"
              },
              {
                "quantity": "1",
                "type": "WINSTEPS",
                "isDirect": "true"
              }
            ],
            "connectionsWithTowns": [
              "Burgen"
            ]
          },
          {
            "townName": "Esti",
            "townColor": "ORANGE",
            "numberOfBonuses": "1",
            "townSector": "4",
            "connectionsWithAnchors": [
              "2"
            ],
            "hasKing": "false",
            "bonuses": [
              {
                "quantity": "3",
                "type": "COINS",
                "isDirect": "true"
              }
            ],
            "connectionsWithTowns": [
              "Burgen"
            ]
          }
        ],
        "Deck": {
          "permissionCards": [
            {
              "numberOfBonuses": "2",
              "permittedTowns": [
                "Arkon",
                "Burgen"
              ],
              "bonuses": [
                {
                  "quantity": "3",
                  "type": "COINS",
                  "isDirect": "true"
                },
                {
                  "quantity": "1",
                  "type": "CARDS",
                  "isDirect": "true"
                }
              ]
            },
            {
              "numberOfBonuses": "2",
              "permittedTowns": [
                "Dorful",
                "Esti"
              ],
              "bonuses": [
                {
                  "quantity": "3",
                  "type": "WINSTEPS",
                  "isDirect": "true"
                },
                {
                  "quantity": "1",
                  "type": "HELPERS",
                  "isDirect": "true"
                }
              ]
            },
            {
              "numberOfBonuses": "2",
              "permittedTowns": [
                "Burgen",
                "Castrum",
                "Dorful"
              ],
              "bonuses": [
                {
                  "quantity": "1",
                  "type": "HELPERS",
                  "isDirect": "true"
                },
                {
                  "quantity": "1",
                  "type": "WINSTEPS",
                  "isDirect": "true"
                }
              ]
            },
            {
              "numberOfBonuses": "1",
              "permittedTowns": [
                "Burgen",
                "Castrum",
                "Arkon"
              ],
              "bonuses": [
                {
                  "quantity": "2",
                  "type": "HELPERS",
                  "isDirect": "true"
                }
              ]
            },
            {
              "numberOfBonuses": "1",
              "permittedTowns": [
                "Arkon",
                "Burgen",
                "Esti"
              ],
              "bonuses": [
                {
                  "quantity": "3",
                  "type": "COINS",
                  "isDirect": "true"
                }
              ]
            },
            {
              "numberOfBonuses": "2",
              "permittedTowns": [
                "Arkon",
                "Dorful",
                "Esti"
              ],
              "bonuses": [
                {
                  "quantity": "1",
                  "type": "COINS",
                  "isDirect": "true"
                },
                {
                  "quantity": "2",
                  "type": "WINSTEPS",
                  "isDirect": "true"
                }
              ]
            },
            {
              "numberOfBonuses": "2",
              "permittedTowns": [
                "Castrum",
                "Dorful",
                "Esti"
              ],
              "bonuses": [
                {
                  "quantity": "1",
                  "type": "CARDS",
                  "isDirect": "true"
                },
                {
                  "quantity": "1",
                  "type": "NOBSTEPS",
                  "isDirect": "true"
                }
              ]
            },
            {
              "numberOfBonuses": "2",
              "permittedTowns": [
                "Burgen"
              ],
              "bonuses": [
                {
                  "quantity": "3",
                  "type": "CARDS",
                  "isDirect": "true"
                },
                {
                  "quantity": "1",
                  "type": "HELPERS",
                  "isDirect": "true"
                }
              ]
            },
            {
              "numberOfBonuses": "2",
              "permittedTowns": [
                "Castrum"
              ],
              "bonuses": [
                {
                  "quantity": "2",
                  "type": "HELPERS",
                  "isDirect": "true"
                },
                {
                  "quantity": "3",
                  "type": "COINS",
                  "isDirect": "true"
                }
              ]
            },
            {
              "numberOfBonuses": "1",
              "permittedTowns": [
                "Dorful"
              ],
              "bonuses": [
                {
                  "quantity": "7",
                  "type": "WINSTEPS",
                  "isDirect": "true"
                }
              ]
            },
            {
              "numberOfBonuses": "2",
              "permittedTowns": [
                "Esti"
              ],
              "bonuses": [
                {
                  "quantity": "1",
                  "type": "SUPPACTION",
                  "isDirect": "true"
                },
                {
                  "quantity": "2",
                  "type": "COINS",
                  "isDirect": "true"
                }
              ]
            },
            {
              "numberOfBonuses": "2",
              "permittedTowns": [
                "Arkon"
              ],
              "bonuses": [
                {
                  "quantity": "4",
                  "type": "WINSTEPS",
                  "isDirect": "true"
                },
                {
                  "quantity": "3",
                  "type": "COINS",
                  "isDirect": "true"
                }
              ]
            },
            {
              "numberOfBonuses": "2",
              "permittedTowns": [
                "Burgen",
                "Castrum"
              ],
              "bonuses": [
                {
                  "quantity": "3",
                  "type": "WINSTEPS",
                  "isDirect": "true"
                },
                {
                  "quantity": "3",
                  "type": "COINS",
                  "isDirect": "true"
                }
              ]
            },
            {
              "numberOfBonuses": "2",
              "permittedTowns": [
                "Castrum",
                "Dorful"
              ],
              "bonuses": [
                {
                  "quantity": "1",
                  "type": "HELPERS",
                  "isDirect": "true"
                },
                {
                  "quantity": "3",
                  "type": "WINSTEPS",
                  "isDirect": "true"
                }
              ]
            },
            {
              "numberOfBonuses": "1",
              "permittedTowns": [
                "Arkon",
                "Esti"
              ],
              "bonuses": [
                {
                  "quantity": "2",
                  "type": "NOBSTEPS",
                  "isDirect": "true"
                }
              ]
            }
          ]
        },
        "numberOfTowns": "5"
      },
      {
        "zone": "MAINLAND",
        "towns": [
          {
            "townName": "Framek",
            "townColor": "GOLD",
            "numberOfBonuses": "1",
            "townSector": "0",
            "connectionsWithAnchors": [
              "0"
            ],
            "hasKing": "false",
            "bonuses": [
              {
                "quantity": "1",
                "type": "HELPERS",
                "isDirect": "true"
              }
            ],
            "connectionsWithTowns": [
              "Indur",
              "Graden"
            ]
          },
          {
            "townName": "Indur",
            "townColor": "ORANGE",
            "numberOfBonuses": "1",
            "townSector": "1",
            "connectionsWithAnchors": [
              "3"
            ],
            "hasKing": "false",
            "bonuses": [
              {
                "quantity": "3",
                "type": "WINSTEPS",
                "isDirect": "true"
              }
            ],
            "connectionsWithTowns": [
              "Framek",
              "Graden"
            ]
          },
          {
            "townName": "Graden",
            "townColor": "KING",
            "numberOfBonuses": "2",
            "townSector": "0",
            "connectionsWithAnchors": [
              "1"
            ],
            "hasKing": "true",
            "bonuses": [],
            "connectionsWithTowns": [
              "Juvelar",
              "Indur",
              "Hellar"
            ]
          },
          {
            "townName": "Juvelar",
            "townColor": "SILVER",
            "numberOfBonuses": "2",
            "townSector": "3",
            "connectionsWithAnchors": [
              "4",
              "5"
            ],
            "hasKing": "false",
            "bonuses": [
              {
                "quantity": "1",
                "type": "HELPERS",
                "isDirect": "true"
              },
              {
                "quantity": "1",
                "type": "COINS",
                "isDirect": "true"
              }
            ],
            "connectionsWithTowns": [
              "Hellar"
            ]
          },
          {
            "townName": "Hellar",
            "townColor": "GOLD",
            "numberOfBonuses": "1",
            "townSector": "4",
            "connectionsWithAnchors": [
              "2"
            ],
            "hasKing": "false",
            "bonuses": [
              {
                "quantity": "1",
                "type": "COINS",
                "isDirect": "true"
              }
            ],
            "connectionsWithTowns": [
              "Juvelar",
              "Graden"
            ]
          }
        ],
        "Deck": {
          "permissionCards": [
            {
              "numberOfBonuses": "2",
              "permittedTowns": [
                "Framek",
                "Juvelar"
              ],
              "bonuses": [
                {
                  "quantity": "2",
                  "type": "HELPERS",
                  "isDirect": "true"
                },
                {
                  "quantity": "1",
                  "type": "COINS",
                  "isDirect": "true"
                }
              ]
            },
            {
              "numberOfBonuses": "2",
              "permittedTowns": [
                "Framek",
                "Graden",
                "Hellar"
              ],
              "bonuses": [
                {
                  "quantity": "1",
                  "type": "COINS",
                  "isDirect": "true"
                },
                {
                  "quantity": "1",
                  "type": "NOBSTEPS",
                  "isDirect": "true"
                }
              ]
            },
            {
              "numberOfBonuses": "2",
              "permittedTowns": [
                "Indur",
                "Juvelar"
              ],
              "bonuses": [
                {
                  "quantity": "2",
                  "type": "CARDS",
                  "isDirect": "true"
                },
                {
                  "quantity": "1",
                  "type": "NOBSTEPS",
                  "isDirect": "true"
                }
              ]
            },
            {
              "numberOfBonuses": "2",
              "permittedTowns": [
                "Framek",
                "Graden",
                "Juvelar"
              ],
              "bonuses": [
                {
                  "quantity": "2",
                  "type": "COINS",
                  "isDirect": "true"
                },
                {
                  "quantity": "1",
                  "type": "WINSTEPS",
                  "isDirect": "true"
                }
              ]
            },
            {
              "numberOfBonuses": "2",
              "permittedTowns": [
                "Graden",
                "Hellar",
                "Indur"
              ],
              "bonuses": [
                {
                  "quantity": "1",
                  "type": "HELPERS",
                  "isDirect": "true"
                },
                {
                  "quantity": "1",
                  "type": "CARDS",
                  "isDirect": "true"
                }
              ]
            },
            {
              "numberOfBonuses": "1",
              "permittedTowns": [
                "Indur",
                "Juvelar",
                "Hellar"
              ],
              "bonuses": [
                {
                  "quantity": "2",
                  "type": "CARDS",
                  "isDirect": "true"
                }
              ]
            },
            {
              "numberOfBonuses": "2",
              "permittedTowns": [
                "Indur",
                "Framek",
                "Juvelar"
              ],
              "bonuses": [
                {
                  "quantity": "1",
                  "type": "HELPERS",
                  "isDirect": "true"
                },
                {
                  "quantity": "1",
                  "type": "NOBSTEPS",
                  "isDirect": "true"
                }
              ]
            },
            {
              "numberOfBonuses": "2",
              "permittedTowns": [
                "Framek"
              ],
              "bonuses": [
                {
                  "quantity": "4",
                  "type": "COINS",
                  "isDirect": "true"
                },
                {
                  "quantity": "2",
                  "type": "CARDS",
                  "isDirect": "true"
                }
              ]
            },
            {
              "numberOfBonuses": "2",
              "permittedTowns": [
                "Juvelar"
              ],
              "bonuses": [
                {
                  "quantity": "1",
                  "type": "SUPPACTION",
                  "isDirect": "true"
                },
                {
                  "quantity": "2",
                  "type": "WINSTEPS",
                  "isDirect": "true"
                }
              ]
            },
            {
              "numberOfBonuses": "3",
              "permittedTowns": [
                "Graden"
              ],
              "bonuses": [
                {
                  "quantity": "2",
                  "type": "HELPERS",
                  "isDirect": "true"
                },
                {
                  "quantity": "2",
                  "type": "WINSTEPS",
                  "isDirect": "true"
                },
                {
                  "quantity": "1",
                  "type": "NOBSTEPS",
                  "isDirect": "true"
                }
              ]
            },
            {
              "numberOfBonuses": "1",
              "permittedTowns": [
                "Hellar"
              ],
              "bonuses": [
                {
                  "quantity": "4",
                  "type": "HELPERS",
                  "isDirect": "true"
                }
              ]
            },
            {
              "numberOfBonuses": "2",
              "permittedTowns": [
                "Indur"
              ],
              "bonuses": [
                {
                  "quantity": "2",
                  "type": "HELPERS",
                  "isDirect": "true"
                },
                {
                  "quantity": "2",
                  "type": "CARDS",
                  "isDirect": "true"
                }
              ]
            },
            {
              "numberOfBonuses": "1",
              "permittedTowns": [
                "Hellar",
                "Graden"
              ],
              "bonuses": [
                {
                  "quantity": "3",
                  "type": "HELPERS",
                  "isDirect": "true"
                }
              ]
            },
            {
              "numberOfBonuses": "1",
              "permittedTowns": [
                "Hellar",
                "Indur"
              ],
              "bonuses": [
                {
                  "quantity": "5",
                  "type": "WINSTEPS",
                  "isDirect": "true"
                }
              ]
            },
            {
              "numberOfBonuses": "1",
              "permittedTowns": [
                "Framek",
                "Graden"
              ],
              "bonuses": [
                {
                  "quantity": "5",
                  "type": "COINS",
                  "isDirect": "true"
                }
              ]
            }
          ]
        },
        "numberOfTowns": "5"
      },
      {
        "zone": "MOUNTAINS",
        "towns": [
          {
            "townName": "Kultos",
            "townColor": "GOLD",
            "numberOfBonuses": "1",
            "townSector": "0",
            "connectionsWithAnchors": [
              "3"
            ],
            "hasKing": "false",
            "bonuses": [
              {
                "quantity": "1",
                "type": "NOBSTEPS",
                "isDirect": "true"
              }
            ],
            "connectionsWithTowns": [
              "Naris"
            ]
          },
          {
            "townName": "Naris",
            "townColor": "ORANGE",
            "numberOfBonuses": "1",
            "townSector": "1",
            "connectionsWithAnchors": [],
            "hasKing": "false",
            "bonuses": [
              {
                "quantity": "2",
                "type": "COINS",
                "isDirect": "true"
              }
            ],
            "connectionsWithTowns": [
              "Kultos",
              "Osium"
            ]
          },
          {
            "townName": "Lyram",
            "townColor": "SILVER",
            "numberOfBonuses": "1",
            "townSector": "2",
            "connectionsWithAnchors": [
              "4"
            ],
            "hasKing": "false",
            "bonuses": [
              {
                "quantity": "1",
                "type": "NOBSTEPS",
                "isDirect": "true"
              }
            ],
            "connectionsWithTowns": [
              "Osium"
            ]
          },
          {
            "townName": "Osium",
            "townColor": "GOLD",
            "numberOfBonuses": "1",
            "townSector": "3",
            "connectionsWithAnchors": [],
            "hasKing": "false",
            "bonuses": [
              {
                "quantity": "1",
                "type": "CARDS",
                "isDirect": "true"
              }
            ],
            "connectionsWithTowns": [
              "Naris",
              "Lyram",
              "Merkatim"
            ]
          },
          {
            "townName": "Merkatim",
            "townColor": "BLUE",
            "numberOfBonuses": "2",
            "townSector": "4",
            "connectionsWithAnchors": [
              "5"
            ],
            "hasKing": "false",
            "bonuses": [
              {
                "quantity": "1",
                "type": "CARDS",
                "isDirect": "true"
              },
              {
                "quantity": "1",
                "type": "WINSTEPS",
                "isDirect": "true"
              }
            ],
            "connectionsWithTowns": [
              "Osium"
            ]
          }
        ],
        "Deck": {
          "permissionCards": [
            {
              "numberOfBonuses": "2",
              "permittedTowns": [
                "Kultos",
                "Lyram"
              ],
              "bonuses": [
                {
                  "quantity": "2",
                  "type": "HELPERS",
                  "isDirect": "true"
                },
                {
                  "quantity": "1",
                  "type": "CARDS",
                  "isDirect": "true"
                }
              ]
            },
            {
              "numberOfBonuses": "2",
              "permittedTowns": [
                "Naris",
                "Osium"
              ],
              "bonuses": [
                {
                  "quantity": "2",
                  "type": "WINSTEPS",
                  "isDirect": "true"
                },
                {
                  "quantity": "2",
                  "type": "CARDS",
                  "isDirect": "true"
                }
              ]
            },
            {
              "numberOfBonuses": "2",
              "permittedTowns": [
                "Kultos",
                "Lyram",
                "Osium"
              ],
              "bonuses": [
                {
                  "quantity": "1",
                  "type": "CARDS",
                  "isDirect": "true"
                },
                {
                  "quantity": "1",
                  "type": "COINS",
                  "isDirect": "true"
                }
              ]
            },
            {
              "numberOfBonuses": "1",
              "permittedTowns": [
                "Lyram",
                "Merkatim",
                "Naris"
              ],
              "bonuses": [
                {
                  "quantity": "3",
                  "type": "WINSTEPS",
                  "isDirect": "true"
                }
              ]
            },
            {
              "numberOfBonuses": "2",
              "permittedTowns": [
                "Merkatim",
                "Osium",
                "Naris"
              ],
              "bonuses": [
                {
                  "quantity": "1",
                  "type": "WINSTEPS",
                  "isDirect": "true"
                },
                {
                  "quantity": "1",
                  "type": "NOBSTEPS",
                  "isDirect": "true"
                }
              ]
            },
            {
              "numberOfBonuses": "2",
              "permittedTowns": [
                "Naris",
                "Osium",
                "Kultos"
              ],
              "bonuses": [
                {
                  "quantity": "1",
                  "type": "CARDS",
                  "isDirect": "true"
                },
                {
                  "quantity": "1",
                  "type": "WINSTEPS",
                  "isDirect": "true"
                }
              ]
            },
            {
              "numberOfBonuses": "2",
              "permittedTowns": [
                "Kultos",
                "Lyram",
                "Merkatim"
              ],
              "bonuses": [
                {
                  "quantity": "1",
                  "type": "HELPERS",
                  "isDirect": "true"
                },
                {
                  "quantity": "1",
                  "type": "COINS",
                  "isDirect": "true"
                }
              ]
            },
            {
              "numberOfBonuses": "2",
              "permittedTowns": [
                "Lyram"
              ],
              "bonuses": [
                {
                  "quantity": "3",
                  "type": "HELPERS",
                  "isDirect": "true"
                },
                {
                  "quantity": "1",
                  "type": "COINS",
                  "isDirect": "true"
                }
              ]
            },
            {
              "numberOfBonuses": "1",
              "permittedTowns": [
                "Kultos"
              ],
              "bonuses": [
                {
                  "quantity": "4",
                  "type": "CARDS",
                  "isDirect": "true"
                }
              ]
            },
            {
              "numberOfBonuses": "2",
              "permittedTowns": [
                "Osium",
                "Kultos"
              ],
              "bonuses": [
                {
                  "quantity": "2",
                  "type": "CARDS",
                  "isDirect": "true"
                },
                {
                  "quantity": "1",
                  "type": "NOBSTEPS",
                  "isDirect": "true"
                }
              ]
            },
            {
              "numberOfBonuses": "2",
              "permittedTowns": [
                "Osium"
              ],
              "bonuses": [
                {
                  "quantity": "3",
                  "type": "CARDS",
                  "isDirect": "true"
                },
                {
                  "quantity": "1",
                  "type": "NOBSTEPS",
                  "isDirect": "true"
                }
              ]
            },
            {
              "numberOfBonuses": "2",
              "permittedTowns": [
                "Merkatim"
              ],
              "bonuses": [
                {
                  "quantity": "5",
                  "type": "WINSTEPS",
                  "isDirect": "true"
                },
                {
                  "quantity": "1",
                  "type": "NOBSTEPS",
                  "isDirect": "true"
                }
              ]
            },
            {
              "numberOfBonuses": "1",
              "permittedTowns": [
                "Naris"
              ],
              "bonuses": [
                {
                  "quantity": "7",
                  "type": "COINS",
                  "isDirect": "true"
                }
              ]
            },
            {
              "numberOfBonuses": "1",
              "permittedTowns": [
                "Merkatim",
                "Lyram"
              ],
              "bonuses": [
                {
                  "quantity": "3",
                  "type": "CARDS",
                  "isDirect": "true"
                }
              ]
            },
            {
              "numberOfBonuses": "1",
              "permittedTowns": [
                "Merkatim",
                "Naris"
              ],
              "bonuses": [
                {
                  "quantity": "1",
                  "type": "SUPPACTION",
                  "isDirect": "true"
                }
              ]
            }
          ]
        },
        "numberOfTowns": "5"
      }
    ]
  }
}